{
  "kind": "singleType",
  "collectionName": "prompts",
  "info": {
    "singularName": "prompt",
    "pluralName": "prompts",
    "displayName": "Post Prompts",
    "description": ""
  },
  "options": {
    "draftAndPublish": true
  },
  "pluginOptions": {},
  "attributes": {
    "Prompt": {
      "type": "blocks",
      "required": true
    }
  }
}
