{
  "kind": "collectionType",
  "collectionName": "posts",
  "info": {
    "singularName": "post",
    "pluralName": "posts",
    "displayName": "Posts",
    "description": ""
  },
  "options": {
    "draftAndPublish": true
  },
  "pluginOptions": {},
  "attributes": {
    "tags": {
      "type": "relation",
      "relation": "manyToMany",
      "target": "api::tag.tag",
      "inversedBy": "posts"
    },
    "release_date": {
      "type": "datetime",
      "required": true
    },
    "deadline_date": {
      "type": "datetime"
    },
    "Title": {
      "type": "string",
      "required": true
    },
    "caption": {
      "type": "text",
      "required": true
    },
    "Slice": {
      "type": "component",
      "repeatable": true,
      "component": "slice.slice"
    }
  }
}
